module bitbucket.org/hirok_biswas/gocrud

go 1.17

require (
	github.com/dgrijalva/jwt-go v3.2.0+incompatible
	github.com/go-chi/chi v1.5.4
	github.com/joho/godotenv v1.4.0
	golang.org/x/crypto v0.0.0-20210921155107-089bfa567519
	gorm.io/driver/postgres v1.3.4
	gorm.io/gorm v1.23.4
)

require (
	github.com/jackc/chunkreader/v2 v2.0.1 // indirect
	github.com/jackc/pgconn v1.11.0 // indirect
	github.com/jackc/pgio v1.0.0 // indirect
	github.com/jackc/pgpassfile v1.0.0 // indirect
	github.com/jackc/pgproto3/v2 v2.2.0 // indirect
	github.com/jackc/pgservicefile v0.0.0-20200714003250-2b9c44734f2b // indirect
	github.com/jackc/pgtype v1.10.0 // indirect
	github.com/jackc/pgx/v4 v4.15.0 // indirect
	github.com/jinzhu/inflection v1.0.0 // indirect
	github.com/jinzhu/now v1.1.4 // indirect
	golang.org/x/text v0.3.7 // indirect
)
